%YAML 1.1
%TAG !u! tag:unity3d.com,2011:
--- !u!114 &11400000
MonoBehaviour:
  m_ObjectHideFlags: 0
  m_CorrespondingSourceObject: {fileID: 0}
  m_PrefabInstance: {fileID: 0}
  m_PrefabAsset: {fileID: 0}
  m_GameObject: {fileID: 0}
  m_Enabled: 1
  m_EditorHideFlags: 0
  m_Script: {fileID: 11500000, guid: 95e66c6366d904e98bc83428217d4fd7, type: 3}
  m_Name: PlayerTankController
  m_EditorClassIdentifier: 
  _data:
    _json: '{"graph":{"variables":{"Kind":"Flow","collection":{"$content":[],"$version":"A"},"$version":"A"},"controlInputDefinitions":[],"controlOutputDefinitions":[],"valueInputDefinitions":[],"valueOutputDefinitions":[],"title":null,"summary":null,"pan":{"x":596.066,"y":-2.150269},"zoom":1.0,"elements":[{"coroutine":false,"defaultValues":{},"position":{"x":-618.0,"y":-640.0},"guid":"f837326a-0f42-4a7f-80b6-146fcc2f908f","$version":"A","$type":"Unity.VisualScripting.Update","$id":"9"},{"member":{"name":"deltaTime","parameterTypes":null,"targetType":"UnityEngine.Time","targetTypeName":"UnityEngine.Time","$version":"A"},"defaultValues":{},"position":{"x":-449.0,"y":186.0},"guid":"cdad439b-35cd-49f3-b8b2-4082cf4dd3a7","$version":"A","$type":"Unity.VisualScripting.GetMember","$id":"11"},{"defaultValues":{},"position":{"x":-213.0,"y":-190.0},"guid":"cc2a1d0c-2e22-4c85-94b4-7147a6cb4885","$version":"A","$type":"Unity.VisualScripting.If","$id":"14"},{"defaultValues":{},"position":{"x":-103.0,"y":110.0},"guid":"032e3f72-2bd1-4e9e-bf24-c7e9f0329def","$version":"A","$type":"Unity.VisualScripting.GenericMultiply","$id":"16"},{"defaultValues":{},"position":{"x":457.0,"y":72.0},"guid":"e7ac8f01-b441-4640-ac58-23a470d0fa1b","$version":"A","$type":"Unity.VisualScripting.GenericMultiply","$id":"18"},{"member":{"name":"deltaTime","parameterTypes":null,"targetType":"UnityEngine.Time","targetTypeName":"UnityEngine.Time","$version":"A"},"defaultValues":{},"position":{"x":177.0,"y":-398.0},"guid":"aec0d18d-57d1-4c02-9bcf-136f78e260d7","$version":"A","$type":"Unity.VisualScripting.GetMember","$id":"20"},{"chainable":false,"member":{"name":"Translate","parameterTypes":["UnityEngine.Vector3"],"targetType":"UnityEngine.Transform","targetTypeName":"UnityEngine.Transform","$version":"A"},"defaultValues":{"target":null,"%translation":{"x":0.0,"y":0.0,"z":0.0,"$type":"UnityEngine.Vector3"}},"position":{"x":750.0,"y":44.0},"guid":"4ef78283-43fa-4cb2-93b9-e0ffd6ecf3ae","$version":"A","$type":"Unity.VisualScripting.InvokeMember","$id":"23"},{"defaultValues":{},"position":{"x":87.0,"y":-654.0},"guid":"9fb5db3b-552c-4bed-bdb2-5d579c012b05","$version":"A","$type":"Unity.VisualScripting.If","$id":"26"},{"chainable":false,"member":{"name":"Rotate","parameterTypes":["UnityEngine.Vector3"],"targetType":"UnityEngine.Transform","targetTypeName":"UnityEngine.Transform","$version":"A"},"defaultValues":{"target":null,"%eulers":{"x":0.0,"y":0.0,"z":0.0,"$type":"UnityEngine.Vector3"}},"position":{"x":686.0,"y":-514.0},"guid":"0744e030-6878-4040-836e-c042746ea925","$version":"A","$type":"Unity.VisualScripting.InvokeMember","$id":"28"},{"chainable":false,"member":{"name":"Rotate","parameterTypes":["UnityEngine.Vector3"],"targetType":"UnityEngine.Transform","targetTypeName":"UnityEngine.Transform","$version":"A"},"defaultValues":{"target":null,"%eulers":{"x":0.0,"y":0.0,"z":0.0,"$type":"UnityEngine.Vector3"}},"position":{"x":-30.0,"y":-486.0},"guid":"58fcbc3c-b2d8-4419-871b-568c99a6bfaa","$version":"A","$type":"Unity.VisualScripting.InvokeMember","$id":"31"},{"specifyFallback":false,"kind":"Object","defaultValues":{"name":{"$content":"AngularSpeed","$type":"System.String"},"object":null},"position":{"x":-666.0,"y":-528.0},"guid":"1003c9cc-3e0a-402b-94f8-b67d306e0b7d","$version":"A","$type":"Unity.VisualScripting.GetVariable","$id":"34"},{"coroutine":false,"defaultValues":{},"position":{"x":-615.0,"y":-184.0},"guid":"98c3e932-62c1-4eba-9135-f977d8601d30","$version":"A","$type":"Unity.VisualScripting.Update","$id":"36"},{"member":{"name":"forward","parameterTypes":null,"targetType":"UnityEngine.Vector3","targetTypeName":"UnityEngine.Vector3","$version":"A"},"defaultValues":{},"position":{"x":-244.0,"y":-8.0},"guid":"e3ae146f-501f-4b47-b36d-7c245a044f00","$version":"A","$type":"Unity.VisualScripting.GetMember","$id":"38"},{"member":{"name":"forward","parameterTypes":null,"targetType":"UnityEngine.Vector3","targetTypeName":"UnityEngine.Vector3","$version":"A"},"defaultValues":{},"position":{"x":476.0,"y":-53.0},"guid":"d0721141-5acf-4a1d-b6b2-24254a7df030","$version":"A","$type":"Unity.VisualScripting.GetMember","$id":"41"},{"member":{"name":"up","parameterTypes":null,"targetType":"UnityEngine.Vector3","targetTypeName":"UnityEngine.Vector3","$version":"A"},"defaultValues":{},"position":{"x":382.0,"y":-510.0},"guid":"1b0004ce-d5bf-4eb7-8ede-3d1b34c42098","$version":"A","$type":"Unity.VisualScripting.GetMember","$id":"44"},{"defaultValues":{},"position":{"x":-213.0,"y":-659.0},"guid":"26a3aab2-5f2e-43cf-aff8-5621f0b35d82","$version":"A","$type":"Unity.VisualScripting.If","$id":"47"},{"member":{"name":"up","parameterTypes":null,"targetType":"UnityEngine.Vector3","targetTypeName":"UnityEngine.Vector3","$version":"A"},"defaultValues":{},"position":{"x":-311.0,"y":-535.0},"guid":"22f66aa1-4f50-465d-8efb-84d1a4c1e98e","$version":"A","$type":"Unity.VisualScripting.GetMember","$id":"49"},{"chainable":false,"member":{"name":"GetKey","parameterTypes":["UnityEngine.KeyCode"],"targetType":"UnityEngine.Input","targetTypeName":"UnityEngine.Input","$version":"A"},"defaultValues":{"%key":{"$content":"S","$type":"UnityEngine.KeyCode"}},"position":{"x":-59.0,"y":-185.0},"guid":"52f133ee-9e47-48ac-8bbe-74bf0dcdb101","$version":"A","$type":"Unity.VisualScripting.InvokeMember","$id":"52"},{"defaultValues":{},"position":{"x":96.0,"y":-182.0},"guid":"eb7ccd1e-af0d-4e52-9607-b03488f4249f","$version":"A","$type":"Unity.VisualScripting.If","$id":"55"},{"specifyFallback":false,"kind":"Object","defaultValues":{"name":{"$content":"AngularSpeed","$type":"System.String"},"object":null},"position":{"x":180.0,"y":-526.0},"guid":"90887f43-faef-4317-a8db-9763851a769b","$version":"A","$type":"Unity.VisualScripting.GetVariable","$id":"57"},{"specifyFallback":false,"kind":"Object","defaultValues":{"name":{"$content":"Speed","$type":"System.String"},"object":null},"position":{"x":139.0,"y":-60.0},"guid":"77f66ba0-db6f-4f22-84cd-0c5ac5abc855","$version":"A","$type":"Unity.VisualScripting.GetVariable","$id":"59"},{"defaultValues":{},"position":{"x":-244.0,"y":119.0},"guid":"301533e8-9d38-4467-8add-e68e95cc3dd7","$version":"A","$type":"Unity.VisualScripting.GenericMultiply","$id":"61"},{"chainable":false,"member":{"name":"GetKey","parameterTypes":["UnityEngine.KeyCode"],"targetType":"UnityEngine.Input","targetTypeName":"UnityEngine.Input","$version":"A"},"defaultValues":{"%key":{"$content":"A","$type":"UnityEngine.KeyCode"}},"position":{"x":-396.0,"y":-662.0},"guid":"8e6bbcb4-9636-43d3-80a9-aa72e6abc7d2","$version":"A","$type":"Unity.VisualScripting.InvokeMember","$id":"63"},{"defaultValues":{},"position":{"x":535.0,"y":-449.0},"guid":"25a8ebf6-85e9-48a2-9298-a1ce067111b7","$version":"A","$type":"Unity.VisualScripting.GenericMultiply","$id":"66"},{"specifyFallback":false,"kind":"Object","defaultValues":{"name":{"$content":"Speed","$type":"System.String"},"object":null},"position":{"x":-445.0,"y":40.0},"guid":"44e48b18-97a9-42ac-a201-4c74476c9734","$version":"A","$type":"Unity.VisualScripting.GetVariable","$id":"68"},{"defaultValues":{},"position":{"x":-181.0,"y":-421.0},"guid":"5c485843-d0fa-40c9-8dd3-0a97cda382a8","$version":"A","$type":"Unity.VisualScripting.GenericMultiply","$id":"70"},{"defaultValues":{},"position":{"x":384.0,"y":-402.0},"guid":"5849c23b-8289-4e3b-825c-1c358dfcdc48","$version":"A","$type":"Unity.VisualScripting.GenericMultiply","$id":"72"},{"member":{"name":"deltaTime","parameterTypes":null,"targetType":"UnityEngine.Time","targetTypeName":"UnityEngine.Time","$version":"A"},"defaultValues":{},"position":{"x":-566.0,"y":-311.0},"guid":"4bb9260b-7ad6-467d-aa2f-9220f4e11410","$version":"A","$type":"Unity.VisualScripting.GetMember","$id":"74"},{"chainable":false,"member":{"name":"GetKey","parameterTypes":["UnityEngine.KeyCode"],"targetType":"UnityEngine.Input","targetTypeName":"UnityEngine.Input","$version":"A"},"defaultValues":{"%key":{"$content":"D","$type":"UnityEngine.KeyCode"}},"position":{"x":-89.0,"y":-655.0},"guid":"1cf48991-8f9f-4622-8681-7e154bc583ec","$version":"A","$type":"Unity.VisualScripting.InvokeMember","$id":"77"},{"chainable":false,"member":{"name":"GetKey","parameterTypes":["UnityEngine.KeyCode"],"targetType":"UnityEngine.Input","targetTypeName":"UnityEngine.Input","$version":"A"},"defaultValues":{"%key":{"$content":"W","$type":"UnityEngine.KeyCode"}},"position":{"x":-398.0,"y":-191.0},"guid":"bb9859e9-2373-4c18-a09b-d13eda93006a","$version":"A","$type":"Unity.VisualScripting.InvokeMember","$id":"80"},{"member":{"name":"deltaTime","parameterTypes":null,"targetType":"UnityEngine.Time","targetTypeName":"UnityEngine.Time","$version":"A"},"defaultValues":{},"position":{"x":252.0,"y":139.0},"guid":"9e03fb5c-0305-4e70-aba1-b910dbd90d97","$version":"A","$type":"Unity.VisualScripting.GetMember","$id":"83"},{"defaultValues":{"b":{"$content":-1.0,"$type":"System.Single"}},"position":{"x":-482.0,"y":-435.0},"guid":"e3f571b2-b04e-442c-9391-2b052c3a5730","$version":"A","$type":"Unity.VisualScripting.ScalarMultiply","$id":"86"},{"defaultValues":{"b":{"$content":-1.0,"$type":"System.Single"}},"position":{"x":311.0,"y":7.0},"guid":"ae1ee9cf-c479-4a16-b084-204d3b59ab1c","$version":"A","$type":"Unity.VisualScripting.ScalarMultiply","$id":"88"},{"defaultValues":{},"position":{"x":598.0,"y":63.0},"guid":"77118e6e-8ea8-4ef9-9d93-052371310a4a","$version":"A","$type":"Unity.VisualScripting.GenericMultiply","$id":"90"},{"chainable":false,"member":{"name":"Translate","parameterTypes":["UnityEngine.Vector3"],"targetType":"UnityEngine.Transform","targetTypeName":"UnityEngine.Transform","$version":"A"},"defaultValues":{"target":null,"%translation":{"x":0.0,"y":0.0,"z":0.0,"$type":"UnityEngine.Vector3"}},"position":{"x":49.0,"y":91.0},"guid":"8e958a94-c394-43e9-9008-15ffa736f9ab","$version":"A","$type":"Unity.VisualScripting.InvokeMember","$id":"92"},{"defaultValues":{},"position":{"x":-336.0,"y":-330.0},"guid":"d05072ca-dcd0-4ae7-82e6-bcb2c4115741","$version":"A","$type":"Unity.VisualScripting.GenericMultiply","$id":"95"},{"sourceUnit":{"$ref":"14"},"sourceKey":"ifFalse","destinationUnit":{"$ref":"52"},"destinationKey":"enter","guid":"d1f973d3-5c22-469f-bfc1-9e8f89942028","$type":"Unity.VisualScripting.ControlConnection"},{"sourceUnit":{"$ref":"36"},"sourceKey":"trigger","destinationUnit":{"$ref":"80"},"destinationKey":"enter","guid":"a2b21ccb-0268-49cf-98c7-a0fdc5c7d7f6","$type":"Unity.VisualScripting.ControlConnection"},{"sourceUnit":{"$ref":"26"},"sourceKey":"ifTrue","destinationUnit":{"$ref":"28"},"destinationKey":"enter","guid":"b83f4b01-c8cb-4444-bb06-bce51f685842","$type":"Unity.VisualScripting.ControlConnection"},{"sourceUnit":{"$ref":"47"},"sourceKey":"ifTrue","destinationUnit":{"$ref":"31"},"destinationKey":"enter","guid":"14acdea9-9d9c-4353-a4e3-2614c5b5dd2a","$type":"Unity.VisualScripting.ControlConnection"},{"sourceUnit":{"$ref":"55"},"sourceKey":"ifTrue","destinationUnit":{"$ref":"23"},"destinationKey":"enter","guid":"b05f761a-3a48-4101-bd00-0a29bc830384","$type":"Unity.VisualScripting.ControlConnection"},{"sourceUnit":{"$ref":"14"},"sourceKey":"ifTrue","destinationUnit":{"$ref":"92"},"destinationKey":"enter","guid":"e27fda66-3c4e-4adb-94fd-f520da0356be","$type":"Unity.VisualScripting.ControlConnection"},{"sourceUnit":{"$ref":"9"},"sourceKey":"trigger","destinationUnit":{"$ref":"63"},"destinationKey":"enter","guid":"0de7d7e1-18ad-4c4e-ba80-bed0f7d157c0","$type":"Unity.VisualScripting.ControlConnection"},{"sourceUnit":{"$ref":"63"},"sourceKey":"exit","destinationUnit":{"$ref":"47"},"destinationKey":"enter","guid":"fc52569a-b052-4bdb-b213-ee6ec84982e5","$type":"Unity.VisualScripting.ControlConnection"},{"sourceUnit":{"$ref":"52"},"sourceKey":"exit","destinationUnit":{"$ref":"55"},"destinationKey":"enter","guid":"828c119e-fcd0-4d48-8cc9-0d71183a39da","$type":"Unity.VisualScripting.ControlConnection"},{"sourceUnit":{"$ref":"47"},"sourceKey":"ifFalse","destinationUnit":{"$ref":"77"},"destinationKey":"enter","guid":"b559fdc9-be83-4df5-91b7-01560ce7abf0","$type":"Unity.VisualScripting.ControlConnection"},{"sourceUnit":{"$ref":"80"},"sourceKey":"exit","destinationUnit":{"$ref":"14"},"destinationKey":"enter","guid":"60232a38-1b21-4a32-8253-25c2b2796337","$type":"Unity.VisualScripting.ControlConnection"},{"sourceUnit":{"$ref":"77"},"sourceKey":"exit","destinationUnit":{"$ref":"26"},"destinationKey":"enter","guid":"d7bc35dd-228a-4d4f-89fa-330a7f0a06e4","$type":"Unity.VisualScripting.ControlConnection"},{"sourceUnit":{"$ref":"86"},"sourceKey":"product","destinationUnit":{"$ref":"95"},"destinationKey":"a","guid":"8b4deba1-381f-4a74-b895-b2def06e0013","$type":"Unity.VisualScripting.ValueConnection"},{"sourceUnit":{"$ref":"52"},"sourceKey":"result","destinationUnit":{"$ref":"55"},"destinationKey":"condition","guid":"409359b4-5ff4-4858-9fe9-c6360df19499","$type":"Unity.VisualScripting.ValueConnection"},{"sourceUnit":{"$ref":"66"},"sourceKey":"product","destinationUnit":{"$ref":"28"},"destinationKey":"%eulers","guid":"c934887c-b4fb-4ef3-ba53-058c46e095e0","$type":"Unity.VisualScripting.ValueConnection"},{"sourceUnit":{"$ref":"57"},"sourceKey":"value","destinationUnit":{"$ref":"72"},"destinationKey":"a","guid":"23cb3823-b304-4056-a905-992af16a728c","$type":"Unity.VisualScripting.ValueConnection"},{"sourceUnit":{"$ref":"34"},"sourceKey":"value","destinationUnit":{"$ref":"86"},"destinationKey":"a","guid":"bdb51d12-10fd-46a3-b5ec-2dbf5afb4385","$type":"Unity.VisualScripting.ValueConnection"},{"sourceUnit":{"$ref":"61"},"sourceKey":"product","destinationUnit":{"$ref":"16"},"destinationKey":"b","guid":"77f3e95a-c381-4d74-ba9b-12357afa3bd9","$type":"Unity.VisualScripting.ValueConnection"},{"sourceUnit":{"$ref":"63"},"sourceKey":"result","destinationUnit":{"$ref":"47"},"destinationKey":"condition","guid":"326111a9-08c9-4ca7-a81a-5569e4e8bad8","$type":"Unity.VisualScripting.ValueConnection"},{"sourceUnit":{"$ref":"90"},"sourceKey":"product","destinationUnit":{"$ref":"23"},"destinationKey":"%translation","guid":"fca900a0-2808-4f8b-84b4-d50a7dd5e7a8","$type":"Unity.VisualScripting.ValueConnection"},{"sourceUnit":{"$ref":"59"},"sourceKey":"value","destinationUnit":{"$ref":"88"},"destinationKey":"a","guid":"3065446b-4000-475c-932a-677d9fd0b51c","$type":"Unity.VisualScripting.ValueConnection"},{"sourceUnit":{"$ref":"20"},"sourceKey":"value","destinationUnit":{"$ref":"72"},"destinationKey":"b","guid":"7725387d-8115-4048-97f2-3a12d9198629","$type":"Unity.VisualScripting.ValueConnection"},{"sourceUnit":{"$ref":"70"},"sourceKey":"product","destinationUnit":{"$ref":"31"},"destinationKey":"%eulers","guid":"c43a3053-0c09-440f-8f33-13b0afb47d22","$type":"Unity.VisualScripting.ValueConnection"},{"sourceUnit":{"$ref":"83"},"sourceKey":"value","destinationUnit":{"$ref":"18"},"destinationKey":"b","guid":"b8b52bf7-167d-4542-bad7-fbf31b976824","$type":"Unity.VisualScripting.ValueConnection"},{"sourceUnit":{"$ref":"88"},"sourceKey":"product","destinationUnit":{"$ref":"18"},"destinationKey":"a","guid":"04cf6a49-87e5-49fc-9a52-2ab2f217ad95","$type":"Unity.VisualScripting.ValueConnection"},{"sourceUnit":{"$ref":"38"},"sourceKey":"value","destinationUnit":{"$ref":"16"},"destinationKey":"a","guid":"5a8fa38d-803b-40fc-8494-25e97e1f5cc4","$type":"Unity.VisualScripting.ValueConnection"},{"sourceUnit":{"$ref":"80"},"sourceKey":"result","destinationUnit":{"$ref":"14"},"destinationKey":"condition","guid":"181df01e-4ebc-48aa-b8c8-29c82b2e5dce","$type":"Unity.VisualScripting.ValueConnection"},{"sourceUnit":{"$ref":"41"},"sourceKey":"value","destinationUnit":{"$ref":"90"},"destinationKey":"a","guid":"d72c4ef3-878e-42fd-8da6-d75ddb5ce137","$type":"Unity.VisualScripting.ValueConnection"},{"sourceUnit":{"$ref":"95"},"sourceKey":"product","destinationUnit":{"$ref":"70"},"destinationKey":"b","guid":"a7717c01-1214-4b24-b2ff-3dbb3474f318","$type":"Unity.VisualScripting.ValueConnection"},{"sourceUnit":{"$ref":"74"},"sourceKey":"value","destinationUnit":{"$ref":"95"},"destinationKey":"b","guid":"192c32b5-73b1-4eea-8bbf-8eddbedc4398","$type":"Unity.VisualScripting.ValueConnection"},{"sourceUnit":{"$ref":"18"},"sourceKey":"product","destinationUnit":{"$ref":"90"},"destinationKey":"b","guid":"9f51b677-e7d4-4f8f-b24d-7dbc9cec3817","$type":"Unity.VisualScripting.ValueConnection"},{"sourceUnit":{"$ref":"49"},"sourceKey":"value","destinationUnit":{"$ref":"70"},"destinationKey":"a","guid":"06fd754e-8011-4ad1-86b3-956aff55c920","$type":"Unity.VisualScripting.ValueConnection"},{"sourceUnit":{"$ref":"72"},"sourceKey":"product","destinationUnit":{"$ref":"66"},"destinationKey":"b","guid":"2f0d938f-24f6-416b-aa6e-d8fc70d6d6df","$type":"Unity.VisualScripting.ValueConnection"},{"sourceUnit":{"$ref":"16"},"sourceKey":"product","destinationUnit":{"$ref":"92"},"destinationKey":"%translation","guid":"72e2d9a1-038f-4f78-b53a-23daa60eee47","$type":"Unity.VisualScripting.ValueConnection"},{"sourceUnit":{"$ref":"68"},"sourceKey":"value","destinationUnit":{"$ref":"61"},"destinationKey":"a","guid":"202ecc27-eaef-41fd-9b00-85b12cbd0663","$type":"Unity.VisualScripting.ValueConnection"},{"sourceUnit":{"$ref":"77"},"sourceKey":"result","destinationUnit":{"$ref":"26"},"destinationKey":"condition","guid":"55f394ab-6f82-4393-bb09-c6d2f3bdbd46","$type":"Unity.VisualScripting.ValueConnection"},{"sourceUnit":{"$ref":"11"},"sourceKey":"value","destinationUnit":{"$ref":"61"},"destinationKey":"b","guid":"3df79bcb-d505-424d-b77d-210d10a15b12","$type":"Unity.VisualScripting.ValueConnection"},{"sourceUnit":{"$ref":"44"},"sourceKey":"value","destinationUnit":{"$ref":"66"},"destinationKey":"a","guid":"158aa55e-c097-4058-aeca-85dbf6176c7b","$type":"Unity.VisualScripting.ValueConnection"}],"$version":"A"}}'
    _objectReferences: []
